…
q2b <- weather_data_with_medians %>%
  group_by(STATE)  %>% 
  slice_min(order_by = distance, n = 1) %>%
  arrange(USAFID, distance) %>%
  distinct(USAFID, .keep_all = TRUE)

unique_stations <- q2a %>%
  arrange(USAFID, distance) %>%
  distinct(USAFID, .keep_all = TRUE)

print(unique_stations)
```

    ## # A tibble: 1,109 × 3
    ##    STATE USAFID distance
    ##    <chr>  <int>    <dbl>
    ##  1 SC    720120        0
    ##  2 IL    720137        0
    ##  3 IL    720170        0
    ##  4 MI    720198        0
    ##  5 OR    720202        0
    ##  6 WA    720254        0
    ##  7 GA    720257        0
    ##  8 MN    720258        0
    ##  9 TX    720261        0
    ## 10 GA    720263        0
    ## # ℹ 1,099 more rows
…
